{
    "name": "bigdargon",
    "description": "Extended block list, which can cause errors in some applications",
    "homeurl": "https://github.com/bigdargon/hostsVN/",
    "frequency": "frequently",
    "issues": "https://github.com/bigdargon/hostsVN/issues",
    "url": "https://raw.githubusercontent.com/bigdargon/hostsVN/master/hosts"
}